dump.vcd
$version Generated by VerilatedVcd $end
$timescale 1ps $end
 $scope module $rootio $end
  $var wire 1 # clk $end
  $var wire 1 $ rst_n $end
  $var wire 16 % a [15:0] $end
  $var wire 16 & b [15:0] $end
  $var wire 3 ' op [2:0] $end
  $var wire 16 ( y [15:0] $end
 $upscope $end
 $scope module alu $end
  $var wire 32 / N [31:0] $end
  $var wire 1 ) clk $end
  $var wire 1 * rst_n $end
  $var wire 16 + a [15:0] $end
  $var wire 16 , b [15:0] $end
  $var wire 3 - op [2:0] $end
  $var wire 16 . y [15:0] $end
 $upscope $end
$enddefinitions $end


#0
1#
0$
b0000000000000000 %
b0000000000000000 &
b000 '
b0000000000000000 (
1)
0*
b0000000000000000 +
b0000000000000000 ,
b000 -
b0000000000000000 .
b00000000000000000000000000010000 /
#5000
0#
0)
#10000
1#
1)
#15000
0#
0)
#20000
1#
1)
#25000
0#
0)
#30000
1#
1)
#35000
0#
0)
#40000
1#
1$
b0100010011001011 %
b0010000001001111 &
b010 '
1)
1*
b0100010011001011 +
b0010000001001111 ,
b010 -
#45000
0#
0)
#50000
1#
b0000000001001011 (
1)
b0000000001001011 .
#55000
0#
0)
#60000
1#
b0011110001011111 %
b1111110110101001 &
b110 '
1)
b0011110001011111 +
b1111110110101001 ,
b110 -
#65000
0#
0)
#70000
1#
b0001111000101111 (
1)
b0001111000101111 .
#75000
0#
0)
#80000
1#
b1110011000100011 %
b1111000111001010 &
b101 '
1)
b1110011000100011 +
b1111000111001010 ,
b101 -
#85000
0#
0)
#90000
1#
b1100110001000110 (
1)
b1100110001000110 .
#95000
0#
0)
#100000
1#
b1100001001011100 %
b0110101101111111 &
b000 '
1)
b1100001001011100 +
b0110101101111111 ,
b000 -
#105000
0#
0)
#110000
1#
b0010110111011011 (
1)
b0010110111011011 .
#115000
0#
0)
#120000
1#
b1111100111001000 %
b0000111010000011 &
b110 '
1)
b1111100111001000 +
b0000111010000011 ,
b110 -
#125000
0#
0)
#130000
1#
b0111110011100100 (
1)
b0111110011100100 .
#135000
0#
0)
#140000
1#
b1100011110010101 %
b1101110110010011 &
b100 '
1)
b1100011110010101 +
b1101110110010011 ,
b100 -
#145000
0#
0)
#150000
1#
b0001101000000110 (
1)
b0001101000000110 .
#155000
0#
0)
#160000
1#
b0000000100010100 %
b1110010000001001 &
b010 '
1)
b0000000100010100 +
b1110010000001001 ,
b010 -
#165000
0#
0)
#170000
1#
b0000000000000000 (
1)
b0000000000000000 .
#175000
0#
0)
#180000
1#
b0111010100100000 %
b0011010001010111 &
1)
b0111010100100000 +
b0011010001010111 ,
#185000
0#
0)
#190000
1#
b0011010000000000 (
1)
b0011010000000000 .
#195000
0#
0)
#200000
1#
b0000111110101001 %
b0000101101101101 &
b000 '
1)
b0000111110101001 +
b0000101101101101 ,
b000 -
#205000
0#
0)
#210000
1#
b0001101100010110 (
1)
b0001101100010110 .
#215000
0#
0)
#220000
1#
b0000010010110110 %
b1100001100101101 &
b101 '
1)
b0000010010110110 +
b1100001100101101 ,
b101 -
#225000
0#
0)
#230000
1#
b0000100101101100 (
1)
b0000100101101100 .
#235000
0#
0)
#240000
1#
b0110111011100110 %
b1101100000011111 &
1)
b0110111011100110 +
b1101100000011111 ,
#245000
0#
0)
#250000
1#
b1101110111001100 (
1)
b1101110111001100 .
#255000
0#
0)
#260000
1#
b0000111011011110 %
b0111000110000001 &
b110 '
1)
b0000111011011110 +
b0111000110000001 ,
b110 -
#265000
0#
0)
#270000
1#
b0000011101101111 (
1)
b0000011101101111 .
#275000
0#
0)
#280000
1#
b1110000000110010 %
b1111110111011011 &
b100 '
1)
b1110000000110010 +
b1111110111011011 ,
b100 -
#285000
0#
0)
#290000
1#
b0001110111101001 (
1)
b0001110111101001 .
#295000
0#
0)
#300000
1#
b0111011101010110 %
b1011000011111111 &
b001 '
1)
b0111011101010110 +
b1011000011111111 ,
b001 -
#305000
0#
0)
#310000
1#
b1100011001010111 (
1)
b1100011001010111 .
#315000
0#
0)
#320000
1#
b0111000000000100 %
b1110101101010001 &
b010 '
1)
b0111000000000100 +
b1110101101010001 ,
b010 -
#325000
0#
0)
#330000
1#
b0110000000000000 (
1)
b0110000000000000 .
#335000
0#
0)
#340000
1#
b0000101100000000 %
b1101010100010101 &
b110 '
1)
b0000101100000000 +
b1101010100010101 ,
b110 -
#345000
0#
0)
#350000
1#
b0000010110000000 (
1)
b0000010110000000 .
#355000
0#
0)
#360000
1#
b0011001100110011 %
b0101111100101111 &
b101 '
1)
b0011001100110011 +
b0101111100101111 ,
b101 -
#365000
0#
0)
#370000
1#
b0110011001100110 (
1)
b0110011001100110 .
#375000
0#
0)
#380000
1#
b1001011111000000 %
b0011110111100101 &
1)
b1001011111000000 +
b0011110111100101 ,
#385000
0#
0)
#390000
1#
b0010111110000000 (
1)
b0010111110000000 .
#395000
0#
0)
#400000
1#
b1010101001010111 %
b1101100000011110 &
b100 '
1)
b1010101001010111 +
b1101100000011110 ,
b100 -
#405000
0#
0)
#410000
1#
b0111001001001001 (
1)
b0111001001001001 .
#415000
0#
0)
#420000
1#
b0110000100110011 %
b1001101101010011 &
b010 '
1)
b0110000100110011 +
b1001101101010011 ,
b010 -
#425000
0#
0)
#430000
1#
b0000000100010011 (
1)
b0000000100010011 .
#435000
0#
0)
#440000
1#
b1111111110101100 %
b1100100101100101 &
b100 '
1)
b1111111110101100 +
b1100100101100101 ,
b100 -
#445000
0#
0)
#450000
1#
b0011011011001001 (
1)
b0011011011001001 .
#455000
0#
0)
#460000
1#
b0001000110101101 %
b1111010111100000 &
b001 '
1)
b0001000110101101 +
b1111010111100000 ,
b001 -
#465000
0#
0)
#470000
1#
b0001101111001101 (
1)
b0001101111001101 .
#475000
0#
0)
#480000
1#
b1100111011111110 %
b1101010000100000 &
b101 '
1)
b1100111011111110 +
b1101010000100000 ,
b101 -
#485000
0#
0)
#490000
1#
b1001110111111100 (
1)
b1001110111111100 .
#495000
0#
0)
#500000
1#
b0101100010010100 %
b1011101111110111 &
b100 '
1)
b0101100010010100 +
b1011101111110111 ,
b100 -
#505000
0#
0)
#510000
1#
b1110001101100011 (
1)
b1110001101100011 .
#515000
0#
0)
#520000
1#
b1011111111011001 %
b0010110001000101 &
b011 '
1)
b1011111111011001 +
b0010110001000101 ,
b011 -
#525000
0#
0)
#530000
1#
b1011111111011101 (
1)
b1011111111011101 .
#535000
0#
0)
#540000
1#
b0011011101000010 %
b0101001111010000 &
b100 '
1)
b0011011101000010 +
b0101001111010000 ,
b100 -
#545000
0#
0)
#550000
1#
b0110010010010010 (
1)
b0110010010010010 .
#555000
0#
0)
#560000
1#
b1100100101011000 %
b1011110110110101 &
b011 '
1)
b1100100101011000 +
b1011110110110101 ,
b011 -
#565000
0#
0)
#570000
1#
b1111110111111101 (
1)
b1111110111111101 .
#575000
0#
0)
#580000
1#
b0000111100100100 %
b1111000001001010 &
b000 '
1)
b0000111100100100 +
b1111000001001010 ,
b000 -
#585000
0#
0)
#590000
1#
b1111111101101110 (
1)
b1111111101101110 .
#595000
0#
0)
#600000
1#
b1001110111110111 %
b1100100110000101 &
b101 '
1)
b1001110111110111 +
b1100100110000101 ,
b101 -
#605000
0#
0)
#610000
1#
b0011101111101110 (
1)
b0011101111101110 .
#615000
0#
0)
#620000
1#
b0101011100111000 %
b0101011001010001 &
b100 '
1)
b0101011100111000 +
b0101011001010001 ,
b100 -
#625000
0#
0)
#630000
1#
b0000000101101001 (
1)
b0000000101101001 .
#635000
0#
0)
#640000
1#
b0111010000110001 %
b0000011001001100 &
b110 '
1)
b0111010000110001 +
b0000011001001100 ,
b110 -
#645000
0#
0)
#650000
1#
b0011101000011000 (
1)
b0011101000011000 .
#655000
0#
0)
#660000
1#
b0110011000100111 %
b0111011011011111 &
b011 '
1)
b0110011000100111 +
b0111011011011111 ,
b011 -
#665000
0#
0)
#670000
1#
b0111011011111111 (
1)
b0111011011111111 .
#675000
0#
0)
#680000
1#
b1011000000001001 %
b1011010011100000 &
1)
b1011000000001001 +
b1011010011100000 ,
#685000
0#
0)
#690000
1#
b1011010011101001 (
1)
b1011010011101001 .
#695000
0#
0)
#700000
1#
b1000100111011110 %
b0000001011101100 &
1)
b1000100111011110 +
b0000001011101100 ,
#705000
0#
0)
#710000
1#
b1000101111111110 (
1)
b1000101111111110 .
#715000
0#
0)
#720000
1#
b0100001000101100 %
b0110100100110101 &
1)
b0100001000101100 +
b0110100100110101 ,
#725000
0#
0)
#730000
1#
b0110101100111101 (
1)
b0110101100111101 .
#735000
0#
0)
#740000
1#
b0001110010111100 %
b1111011001010010 &
b110 '
1)
b0001110010111100 +
b1111011001010010 ,
b110 -
#745000
0#
0)
#750000
1#
b0000111001011110 (
1)
b0000111001011110 .
#755000
0#
0)
#760000
1#
b1011101010111110 %
b0110011001010001 &
b100 '
1)
b1011101010111110 +
b0110011001010001 ,
b100 -
#765000
0#
0)
#770000
1#
b1101110011101111 (
1)
b1101110011101111 .
#775000
0#
0)
#780000
1#
b1101001110101001 %
b1111100001001000 &
b110 '
1)
b1101001110101001 +
b1111100001001000 ,
b110 -
#785000
0#
0)
#790000
1#
b0110100111010100 (
1)
b0110100111010100 .
#795000
0#
0)
#800000
1#
b1011011010101101 %
b1101010000101111 &
b010 '
1)
b1011011010101101 +
b1101010000101111 ,
b010 -
#805000
0#
0)
#810000
1#
b1001010000101101 (
1)
b1001010000101101 .
#815000
0#
0)
#820000
1#
b0000000011001111 %
b1010100110001010 &
b011 '
1)
b0000000011001111 +
b1010100110001010 ,
b011 -
#825000
0#
0)
#830000
1#
b1010100111001111 (
1)
b1010100111001111 .
#835000
0#
0)
#840000
1#
b0000111001010010 %
b0111010110001110 &
b101 '
1)
b0000111001010010 +
b0111010110001110 ,
b101 -
#845000
0#
0)
#850000
1#
b0001110010100100 (
1)
b0001110010100100 .
#855000
0#
0)
#860000
1#
b0101101010111011 %
b0101110010001111 &
b110 '
1)
b0101101010111011 +
b0101110010001111 ,
b110 -
#865000
0#
0)
#870000
1#
b0010110101011101 (
1)
b0010110101011101 .
#875000
0#
0)
#880000
1#
b0010111011100110 %
b1000001010110101 &
b000 '
1)
b0010111011100110 +
b1000001010110101 ,
b000 -
#885000
0#
0)
#890000
1#
b1011000110011011 (
1)
b1011000110011011 .
#895000
0#
0)
#900000
1#
b0010010000010010 %
b0010101010011101 &
b110 '
1)
b0010010000010010 +
b0010101010011101 ,
b110 -
#905000
0#
0)
#910000
1#
b0001001000001001 (
1)
b0001001000001001 .
#915000
0#
0)
#920000
1#
b0000100010001011 %
b1110011111101111 &
b000 '
1)
b0000100010001011 +
b1110011111101111 ,
b000 -
#925000
0#
0)
#930000
1#
b1111000001111010 (
1)
b1111000001111010 .
#935000
0#
0)
#940000
1#
b1000111111111001 %
b0111111111000110 &
b010 '
1)
b1000111111111001 +
b0111111111000110 ,
b010 -
#945000
0#
0)
#950000
1#
b0000111111000000 (
1)
b0000111111000000 .
#955000
0#
0)
#960000
1#
b0011100000001110 %
b0101111010000101 &
1)
b0011100000001110 +
b0101111010000101 ,
#965000
0#
0)
#970000
1#
b0001100000000100 (
1)
b0001100000000100 .
#975000
0#
0)
#980000
1#
b1001010010100000 %
b0010001110010111 &
b001 '
1)
b1001010010100000 +
b0010001110010111 ,
b001 -
#985000
0#
0)
#990000
1#
b0111000100001001 (
1)
b0111000100001001 .
#995000
0#
0)
#1000000
1#
b0101000110111010 %
b1000001010101011 &
b100 '
1)
b0101000110111010 +
b1000001010101011 ,
b100 -
#1005000
0#
0)
#1010000
1#
b1101001100010001 (
1)
b1101001100010001 .
#1015000
0#
0)
#1020000
1#
b0101011000010111 %
b1000101110111011 &
b101 '
1)
b0101011000010111 +
b1000101110111011 ,
b101 -
#1025000
0#
0)
#1030000
1#
b1010110000101110 (
1)
b1010110000101110 .
#1035000
0#
0)
#1040000
1#
b1001011011000111 %
b1110100011001110 &
1)
b1001011011000111 +
b1110100011001110 ,
#1045000
0#
0)
#1050000
1#
b0010110110001110 (
1)
b0010110110001110 .
#1055000
0#
0)
#1060000
1#
b1010010011011101 %
b1111111000110100 &
b011 '
1)
b1010010011011101 +
b1111111000110100 ,
b011 -
#1065000
0#
0)
#1070000
1#
b1111111011111101 (
1)
b1111111011111101 .
#1075000
0#
0)
#1080000
1#
b0011101001110111 %
b0000110000011001 &
b010 '
1)
b0011101001110111 +
b0000110000011001 ,
b010 -
#1085000
0#
0)
#1090000
1#
b0000100000010001 (
1)
b0000100000010001 .
#1095000
0#
0)
#1100000
1#
b1100010111101010 %
b1010111111001010 &
b011 '
1)
b1100010111101010 +
b1010111111001010 ,
b011 -
#1105000
0#
0)
#1110000
1#
b1110111111101010 (
1)
b1110111111101010 .
#1115000
0#
0)
#1120000
1#
b0110000001000110 %
b1000010001001111 &
b000 '
1)
b0110000001000110 +
b1000010001001111 ,
b000 -
#1125000
0#
0)
#1130000
1#
b1110010010010101 (
1)
b1110010010010101 .
#1135000
0#
0)
#1140000
1#
b1000000111000101 %
b0110101100001101 &
b100 '
1)
b1000000111000101 +
b0110101100001101 ,
b100 -
#1145000
0#
0)
#1150000
1#
b1110101011001000 (
1)
b1110101011001000 .
#1155000
0#
0)
#1160000
1#
b1101110100000001 %
b0000101010101000 &
b001 '
1)
b1101110100000001 +
b0000101010101000 ,
b001 -
#1165000
0#
0)
#1170000
1#
b1101001001011001 (
1)
b1101001001011001 .
#1175000
0#
0)
#1180000
1#
b0000100100100101 %
b1100101101101100 &
1)
b0000100100100101 +
b1100101101101100 ,
#1185000
0#
0)
#1190000
1#
b0011110110111001 (
1)
b0011110110111001 .
#1195000
0#
0)
#1200000
1#
b0001001000010110 %
b0101001000001001 &
b011 '
1)
b0001001000010110 +
b0101001000001001 ,
b011 -
#1205000
0#
0)
#1210000
1#
b0101001000011111 (
1)
b0101001000011111 .
#1215000
0#
0)
#1220000
1#
b1101101001110011 %
b0111000011110010 &
b101 '
1)
b1101101001110011 +
b0111000011110010 ,
b101 -
#1225000
0#
0)
#1230000
1#
b1011010011100110 (
1)
b1011010011100110 .
#1235000
0#
0)
#1240000
1#
b1110011011010101 %
b0111001001000110 &
b100 '
1)
b1110011011010101 +
b0111001001000110 ,
b100 -
#1245000
0#
0)
#1250000
1#
b1001010010010011 (
1)
b1001010010010011 .
#1255000
0#
0)
#1260000
1#
b0000111110110111 %
b1100101000110000 &
b101 '
1)
b0000111110110111 +
b1100101000110000 ,
b101 -
#1265000
0#
0)
#1270000
1#
b0001111101101110 (
1)
b0001111101101110 .
#1275000
0#
0)
#1280000
1#
b1010010001111010 %
b1101101001000011 &
b000 '
1)
b1010010001111010 +
b1101101001000011 ,
b000 -
#1285000
0#
0)
#1290000
1#
b0111111010111101 (
1)
b0111111010111101 .
#1295000
0#
0)
#1300000
1#
b1001100011100010 %
b0100000001011001 &
b001 '
1)
b1001100011100010 +
b0100000001011001 ,
b001 -
#1305000
0#
0)
#1310000
1#
b0101100010001001 (
1)
b0101100010001001 .
#1315000
0#
0)
#1320000
1#
b0001100001001010 %
b1001110011011110 &
b000 '
1)
b0001100001001010 +
b1001110011011110 ,
b000 -
#1325000
0#
0)
#1330000
1#
b1011010100101000 (
1)
b1011010100101000 .
#1335000
0#
0)
#1340000
1#
b0010011100100011 %
b1001111011100111 &
b010 '
1)
b0010011100100011 +
b1001111011100111 ,
b010 -
#1345000
0#
0)
#1350000
1#
b0000011000100011 (
1)
b0000011000100011 .
#1355000
0#
0)
#1360000
1#
b0101000100000000 %
b1101010100010100 &
b100 '
1)
b0101000100000000 +
b1101010100010100 ,
b100 -
#1365000
0#
0)
#1370000
1#
b1000010000010100 (
1)
b1000010000010100 .
#1375000
0#
0)
#1380000
1#
b1000000100110101 %
b0100001011000010 &
b000 '
1)
b1000000100110101 +
b0100001011000010 ,
b000 -
#1385000
0#
0)
#1390000
1#
b1100001111110111 (
1)
b1100001111110111 .
#1395000
0#
0)
#1400000
1#
b0001001101101001 %
b0110111101101000 &
b100 '
1)
b0001001101101001 +
b0110111101101000 ,
b100 -
#1405000
0#
0)
#1410000
1#
b0111110000000001 (
1)
b0111110000000001 .
#1415000
0#
0)
#1420000
1#
b1110101111110100 %
b0101011111010001 &
b110 '
1)
b1110101111110100 +
b0101011111010001 ,
b110 -
#1425000
0#
0)
#1430000
1#
b0111010111111010 (
1)
b0111010111111010 .
#1435000
0#
0)
#1440000
1#
b0001001100101001 %
b1100000110000101 &
b001 '
1)
b0001001100101001 +
b1100000110000101 ,
b001 -
#1445000
0#
0)
#1450000
1#
b0101000110100100 (
1)
b0101000110100100 .
#1455000
0#
0)
#1460000
1#
b1011000110100000 %
b0011001010110011 &
1)
b1011000110100000 +
b0011001010110011 ,
#1465000
0#
0)
#1470000
1#
b0111111011101101 (
1)
b0111111011101101 .
#1475000
0#
0)
#1480000
1#
b1101110110101011 %
b0110001101100011 &
b011 '
1)
b1101110110101011 +
b0110001101100011 ,
b011 -
#1485000
0#
0)
#1490000
1#
b1111111111101011 (
1)
b1111111111101011 .
#1495000
0#
0)
#1500000
1#
b0011010101110111 %
b1100011110110110 &
b010 '
1)
b0011010101110111 +
b1100011110110110 ,
b010 -
#1505000
0#
0)
#1510000
1#
b0000010100110110 (
1)
b0000010100110110 .
#1515000
0#
0)
#1520000
1#
b1111111111100101 %
b0000100011001110 &
1)
b1111111111100101 +
b0000100011001110 ,
#1525000
0#
0)
#1530000
1#
b0000100011000100 (
1)
b0000100011000100 .
#1535000
0#
0)
#1540000
1#
b1100110111111101 %
b1001000000001101 &
b000 '
1)
b1100110111111101 +
b1001000000001101 ,
b000 -
#1545000
0#
0)
#1550000
1#
b0101111000001010 (
1)
b0101111000001010 .
#1555000
0#
0)
#1560000
1#
b0101000001011101 %
b0110011011010110 &
b110 '
1)
b0101000001011101 +
b0110011011010110 ,
b110 -
#1565000
0#
0)
#1570000
1#
b0010100000101110 (
1)
b0010100000101110 .
#1575000
0#
0)
#1580000
1#
b1010011111001101 %
b0100010100110001 &
b010 '
1)
b1010011111001101 +
b0100010100110001 ,
b010 -
#1585000
0#
0)
#1590000
1#
b0000010100000001 (
1)
b0000010100000001 .
#1595000
0#
0)
#1600000
1#
b1101101111000101 %
b0110110100010010 &
1)
b1101101111000101 +
b0110110100010010 ,
#1605000
0#
0)
#1610000
1#
b0100100100000000 (
1)
b0100100100000000 .
#1615000
0#
0)
#1620000
1#
b0011000101011100 %
b1100001000101010 &
b100 '
1)
b0011000101011100 +
b1100001000101010 ,
b100 -
#1625000
0#
0)
#1630000
1#
b1111001101110110 (
1)
b1111001101110110 .
#1635000
0#
0)
#1640000
1#
b1011000000001101 %
b1111100000010000 &
b110 '
1)
b1011000000001101 +
b1111100000010000 ,
b110 -
#1645000
0#
0)
#1650000
1#
b0101100000000110 (
1)
b0101100000000110 .
#1655000
0#
0)
#1660000
1#
b0111100000100010 %
b0010000101110001 &
b101 '
1)
b0111100000100010 +
b0010000101110001 ,
b101 -
#1665000
0#
0)
#1670000
1#
b1111000001000100 (
1)
b1111000001000100 .
#1675000
0#
0)
#1680000
1#
b0001010010101111 %
b0010101101011011 &
b001 '
1)
b0001010010101111 +
b0010101101011011 ,
b001 -
#1685000
0#
0)
#1690000
1#
b1110100101010100 (
1)
b1110100101010100 .
#1695000
0#
0)
#1700000
1#
b0101011011100010 %
b0101010101000110 &
b100 '
1)
b0101011011100010 +
b0101010101000110 ,
b100 -
#1705000
0#
0)
#1710000
1#
b0000001110100100 (
1)
b0000001110100100 .
#1715000
0#
0)
#1720000
1#
b0110110100001010 %
b1000100100111000 &
b110 '
1)
b0110110100001010 +
b1000100100111000 ,
b110 -
#1725000
0#
0)
#1730000
1#
b0011011010000101 (
1)
b0011011010000101 .
#1735000
0#
0)
#1740000
1#
b1010101000011010 %
b1000001010110101 &
b010 '
1)
b1010101000011010 +
b1000001010110101 ,
b010 -
#1745000
0#
0)
#1750000
1#
b1000001000010000 (
1)
b1000001000010000 .
#1755000
0#
0)
#1760000
1#
b1010110101111101 %
b1010111000111001 &
b000 '
1)
b1010110101111101 +
b1010111000111001 ,
b000 -
#1765000
0#
0)
#1770000
1#
b0101101110110110 (
1)
b0101101110110110 .
#1775000
0#
0)
#1780000
1#
b1001010100011010 %
b0111100001101010 &
b110 '
1)
b1001010100011010 +
b0111100001101010 ,
b110 -
#1785000
0#
0)
#1790000
1#
b0100101010001101 (
1)
b0100101010001101 .
#1795000
0#
0)
#1800000
1#
b1111101001000011 %
b0100010101001100 &
b100 '
1)
b1111101001000011 +
b0100010101001100 ,
b100 -
#1805000
0#
0)
#1810000
1#
b1011111100001111 (
1)
b1011111100001111 .
#1815000
0#
0)
#1820000
1#
b0011010101100011 %
b1010010000110110 &
b000 '
1)
b0011010101100011 +
b1010010000110110 ,
b000 -
#1825000
0#
0)
#1830000
1#
b1101100110011001 (
1)
b1101100110011001 .
#1835000
0#
0)
#1840000
1#
b1101000000101101 %
b0010010101111001 &
b011 '
1)
b1101000000101101 +
b0010010101111001 ,
b011 -
#1845000
0#
0)
#1850000
1#
b1111010101111101 (
1)
b1111010101111101 .
#1855000
0#
0)
#1860000
1#
b0100101101101110 %
b0100000000000010 &
b010 '
1)
b0100101101101110 +
b0100000000000010 ,
b010 -
#1865000
0#
0)
#1870000
1#
b0100000000000010 (
1)
b0100000000000010 .
#1875000
0#
0)
#1880000
1#
b0011101010111000 %
b1100000110001110 &
b000 '
1)
b0011101010111000 +
b1100000110001110 ,
b000 -
#1885000
0#
0)
#1890000
1#
b1111110001000110 (
1)
b1111110001000110 .
#1895000
0#
0)
#1900000
1#
b0111001010001010 %
b0010100111011010 &
b010 '
1)
b0111001010001010 +
b0010100111011010 ,
b010 -
#1905000
0#
0)
#1910000
1#
b0010000010001010 (
1)
b0010000010001010 .
#1915000
0#
0)
#1920000
1#
b1011101011010011 %
b1001011101010010 &
b100 '
1)
b1011101011010011 +
b1001011101010010 ,
b100 -
#1925000
0#
0)
#1930000
1#
b0010110110000001 (
1)
b0010110110000001 .
#1935000
0#
0)
#1940000
1#
b0011101010000111 %
b1110101001100000 &
b010 '
1)
b0011101010000111 +
b1110101001100000 ,
b010 -
#1945000
0#
0)
#1950000
1#
b0010101000000000 (
1)
b0010101000000000 .
#1955000
0#
0)
#1960000
1#
b0011011100101000 %
b0001011101101100 &
b110 '
1)
b0011011100101000 +
b0001011101101100 ,
b110 -
#1965000
0#
0)
#1970000
1#
b0001101110010100 (
1)
b0001101110010100 .
#1975000
0#
0)
#1980000
1#
b1001011101101010 %
b0000011001010110 &
b100 '
1)
b1001011101101010 +
b0000011001010110 ,
b100 -
#1985000
0#
0)
#1990000
1#
b1001000100111100 (
1)
b1001000100111100 .
#1995000
0#
0)
#2000000
1#
b0000011101110010 %
b0010111011110001 &
b011 '
1)
b0000011101110010 +
b0010111011110001 ,
b011 -
#2005000
0#
0)
#2010000
1#
b0010111111110011 (
1)
b0010111111110011 .
#2015000
0#
0)
#2020000
1#
b0011101011101110 %
b0001010001111101 &
b001 '
1)
b0011101011101110 +
b0001010001111101 ,
b001 -
#2025000
0#
0)
#2030000
1#
b0010011001110001 (
1)
b0010011001110001 .
#2035000
0#
0)
#2040000
1#
b0111101010110001 %
b1101011110001111 &
1)
b0111101010110001 +
b1101011110001111 ,
#2045000
0#
0)
#2050000
1#
b1010001100100010 (
1)
b1010001100100010 .
#2055000
0#
0)
#2060000
1#
b0011101100101010 %
b1110011011011101 &
1)
b0011101100101010 +
b1110011011011101 ,
#2065000
0#
0)
#2070000
1#
b0101010001001101 (
1)
b0101010001001101 .
#2075000
0#
0)
#2080000
1#
b0111101110011011 %
b0101000101100001 &
b101 '
1)
b0111101110011011 +
b0101000101100001 ,
b101 -
#2085000
0#
0)
#2090000
1#
b1111011100110110 (
1)
b1111011100110110 .
#2095000
0#
0)
#2100000
1#
b0011010010100110 %
b1101111011000101 &
b011 '
1)
b0011010010100110 +
b1101111011000101 ,
b011 -
#2105000
0#
0)
#2110000
1#
b1111111011100111 (
1)
b1111111011100111 .
#2115000
0#
0)
#2120000
1#
b1001011010001010 %
b1000000110111110 &
b101 '
1)
b1001011010001010 +
b1000000110111110 ,
b101 -
#2125000
0#
0)
#2130000
1#
b0010110100010100 (
1)
b0010110100010100 .
#2135000
0#
0)
#2140000
1#
b1111010000111010 %
b1010000100000000 &
b000 '
1)
b1111010000111010 +
b1010000100000000 ,
b000 -
#2145000
0#
0)
#2150000
1#
b1001010100111010 (
1)
b1001010100111010 .
#2155000
0#
0)
#2160000
1#
b0110101001001100 %
b1010001010000100 &
1)
b0110101001001100 +
b1010001010000100 ,
#2165000
0#
0)
#2170000
1#
b0000110011010000 (
1)
b0000110011010000 .
#2175000
0#
0)
#2180000
1#
b0000110111110101 %
b0000010101100001 &
b110 '
1)
b0000110111110101 +
b0000010101100001 ,
b110 -
#2185000
0#
0)
#2190000
1#
b0000011011111010 (
1)
b0000011011111010 .
#2195000
0#
0)
#2200000
1#
b1001011101010010 %
b1010001111110111 &
b011 '
1)
b1001011101010010 +
b1010001111110111 ,
b011 -
#2205000
0#
0)
#2210000
1#
b1011011111110111 (
1)
b1011011111110111 .
#2215000
0#
0)
#2220000
1#
b1100100001010100 %
b1010000001100110 &
1)
b1100100001010100 +
b1010000001100110 ,
#2225000
0#
0)
#2230000
1#
b1110100001110110 (
1)
b1110100001110110 .
#2235000
0#
0)
#2240000
1#
b0010000000111100 %
b0010000011011101 &
b010 '
1)
b0010000000111100 +
b0010000011011101 ,
b010 -
#2245000
0#
0)
#2250000
1#
b0010000000011100 (
1)
b0010000000011100 .
#2255000
0#
0)
#2260000
1#
b1110100101100110 %
b0011100100000100 &
1)
b1110100101100110 +
b0011100100000100 ,
#2265000
0#
0)
#2270000
1#
b0010100100000100 (
1)
b0010100100000100 .
#2275000
0#
0)
#2280000
1#
b0110111000101101 %
b1111000000010110 &
b101 '
1)
b0110111000101101 +
b1111000000010110 ,
b101 -
#2285000
0#
0)
#2290000
1#
b1101110001011010 (
1)
b1101110001011010 .
#2295000
0#
0)
#2300000
1#
b1011011000101110 %
b1000010010100110 &
b001 '
1)
b1011011000101110 +
b1000010010100110 ,
b001 -
#2305000
0#
0)
#2310000
1#
b0011000110001000 (
1)
b0011000110001000 .
#2315000
0#
0)
#2320000
1#
b0110101001101001 %
b1001110101011001 &
1)
b0110101001101001 +
b1001110101011001 ,
#2325000
0#
0)
#2330000
1#
b1100110100010000 (
1)
b1100110100010000 .
#2335000
0#
0)
#2340000
1#
b0111111000100101 %
b1011100010001110 &
b000 '
1)
b0111111000100101 +
b1011100010001110 ,
b000 -
#2345000
0#
0)
#2350000
1#
b0011011010110011 (
1)
b0011011010110011 .
#2355000
0#
0)
#2360000
1#
b1000111111000011 %
b0010110111000111 &
b110 '
1)
b1000111111000011 +
b0010110111000111 ,
b110 -
#2365000
0#
0)
#2370000
1#
b0100011111100001 (
1)
b0100011111100001 .
#2375000
0#
0)
#2380000
1#
b1110010101010011 %
b0010111001010100 &
b101 '
1)
b1110010101010011 +
b0010111001010100 ,
b101 -
#2385000
0#
0)
#2390000
1#
b1100101010100110 (
1)
b1100101010100110 .
#2395000
0#
0)
#2400000
1#
b1010110110000010 %
b0111010001110001 &
b011 '
1)
b1010110110000010 +
b0111010001110001 ,
b011 -
#2405000
0#
0)
#2410000
1#
b1111110111110011 (
1)
b1111110111110011 .
#2415000
0#
0)
#2420000
1#
b1001110100010010 %
b0001010100000100 &
b010 '
1)
b1001110100010010 +
b0001010100000100 ,
b010 -
#2425000
0#
0)
#2430000
1#
b0001010100000000 (
1)
b0001010100000000 .
#2435000
0#
0)
#2440000
1#
b0101111110100101 %
b1010001000101011 &
b110 '
1)
b0101111110100101 +
b1010001000101011 ,
b110 -
#2445000
0#
0)
#2450000
1#
b0010111111010010 (
1)
b0010111111010010 .
#2455000
0#
0)
#2460000
1#
b1001101100001001 %
b0111110111011111 &
b010 '
1)
b1001101100001001 +
b0111110111011111 ,
b010 -
#2465000
0#
0)
#2470000
1#
b0001100100001001 (
1)
b0001100100001001 .
#2475000
0#
0)
#2480000
1#
b0011001110101111 %
b0010111100100000 &
b001 '
1)
b0011001110101111 +
b0010111100100000 ,
b001 -
#2485000
0#
0)
#2490000
1#
b0000010010001111 (
1)
b0000010010001111 .
#2495000
0#
0)
#2500000
1#
b0111000010111000 %
b0000101001101110 &
b110 '
1)
b0111000010111000 +
b0000101001101110 ,
b110 -
#2505000
0#
0)
#2510000
1#
b0011100001011100 (
1)
b0011100001011100 .
#2515000
0#
0)
#2520000
1#
b0111110011001110 %
b1100110110110101 &
b000 '
1)
b0111110011001110 +
b1100110110110101 ,
b000 -
#2525000
0#
0)
#2530000
1#
b0100101010000011 (
1)
b0100101010000011 .
#2535000
0#
0)
#2540000
1#
b1000100100111111 %
b0010010001001111 &
b101 '
1)
b1000100100111111 +
b0010010001001111 ,
b101 -
#2545000
0#
0)
#2550000
1#
b0001001001111110 (
1)
b0001001001111110 .
#2555000
0#
0)
#2560000
1#
b0010011001110111 %
b0000101100000011 &
1)
b0010011001110111 +
b0000101100000011 ,
#2565000
0#
0)
#2570000
1#
b0100110011101110 (
1)
b0100110011101110 .
#2575000
0#
0)
#2580000
1#
b0000010100010011 %
b1001010011100110 &
b110 '
1)
b0000010100010011 +
b1001010011100110 ,
b110 -
#2585000
0#
0)
#2590000
1#
b0000001010001001 (
1)
b0000001010001001 .
#2595000
0#
0)
#2600000
1#
b1011011111100111 %
b1111110010001100 &
b011 '
1)
b1011011111100111 +
b1111110010001100 ,
b011 -
#2605000
0#
0)
#2610000
1#
b1111111111101111 (
1)
b1111111111101111 .
#2615000
0#
0)
